What is wrong with the following interface? and fix it.
        (int x, y) -> x + y;


-------------------------------------------Word Breakdown Structure(WBS)-------------------------------------------------------------
1.Requirements
   - What is wrong with the following interface? and fix it.

2.Jobs to be done
   1.Fixing the wrong specified code 

-----------------------------------------------Answer--------------------------------------------------------------------------------

Correct Code:
      (x,y) -> x + y;
      
   Passing the two variables data type specified to both or not specified two both but the above snippet code
the single variable of type specified.

